PS270 Final Project
…
nat_unemployment <- read_csv("National Unemployment Statistics sep 2004 - sept 2024 - Sheet1.csv")

nat_unemployment <- nat_unemployment|>
   select(Month, Total)

nat_unemployment <- nat_unemployment |>
  mutate(Month = as.numeric(format(as.Date(paste0("01", Month), format = "%d %b %Y"), "%Y%m")))
nat_unemployment

# A tibble: 241 × 2
    Month Total
    <dbl> <dbl>
 1     NA   5.4
 2 200410   5.5
 3 200411   5.4
 4 200412   5.4
 5 200501   5.3
 6 200502   5.4
 7 200503   5.2
 8 200504   5.2
 9 200505   5.1
10 200506   5  
# ℹ 231 more rows

annual_avg_unemployment <- nat_unemployment |>
  filter(!is.na(Month)) |> 
  mutate(Year = floor(Month/100)) |> 
  group_by(Year) |>
  summarize(annual_avg_unemployment = mean(Total, na.rm = T))
annual_avg_unemployment

# A tibble: 21 × 2
    Year annual_avg_unemployment
   <dbl>                   <dbl>
 1  2004                    5.43
 2  2005                    5.09
 3  2006                    4.62
 4  2007                    4.61
 5  2008                    5.77
 6  2009                    9.24
 7  2010                    9.62
 8  2011                    8.93
 9  2012                    8.1 
10  2013                    7.37
# ℹ 11 more rows
…
Results Section

library(ggplot2)
library(tidyr)

county_results <- read_csv("county_resultes - Sheet1.csv")

county_results <- county_results |>
  mutate(`MOV 2020` = case_when(
    `Status 2020` == "Boomerang" ~ `MOV 2020`, 
    `Status 2020` == "Retained" ~ - `MOV 2020`,
    TRUE ~ `MOV 2020`))
county_results

# A tibble: 206 × 7
   County            State   `Status 2020` `MOV 2020` `Trump MOV 2016`
   <chr>             <chr>   <chr>              <dbl>            <dbl>
 1 Woodruff County   Arkans… Retained          -27.8              8.91
 2 Conejos County    Colora… Retained           -7.55             3.56
 3 Huerfano County   Colora… Retained           -2.88             6.61
 4 Las Animas County Colora… Retained           -9.89            15.6 
 5 Pueblo County     Colora… Boomerang           1.72             0.5 
 6 Windham County    Connec… Retained           -4.27             7.78
 7 Kent County       Delawa… Boomerang           4.07             4.87
 8 Jefferson County  Florida Retained           -6.87             5.06
 9 Monroe County     Florida Retained           -7.92             6.82
10 Pinellas County   Florida Boomerang           0.22             1.11
# ℹ 196 more rows
# ℹ 2 more variables: `Obama MOV 2012` <dbl>, `Obama MOV 2008` <dbl>
…
county_results_long$Year <- as.numeric(county_results_long$Year)
annual_avg_unemployment$Year <- as.numeric(annual_avg_unemployment$Year)

combined_data <- left_join(county_results_long, annual_avg_unemployment, by = "Year")
combined_data

# A tibble: 824 × 6
   County      State `Status 2020`  Year    MOV annual_avg_unemploym…¹
   <chr>       <chr> <fct>         <dbl>  <dbl>                  <dbl>
 1 Woodruff C… Arka… Retained       2016   8.91                   4.86
 2 Woodruff C… Arka… Retained       2012   4.21                   8.1 
 3 Woodruff C… Arka… Retained       2008   7.46                   5.77
 4 Woodruff C… Arka… Retained       2020 -27.8                    8.12
 5 Conejos Co… Colo… Retained       2016   3.56                   4.86
 6 Conejos Co… Colo… Retained       2012   9.22                   8.1 
 7 Conejos Co… Colo… Retained       2008  12.9                    5.77
 8 Conejos Co… Colo… Retained       2020  -7.55                   8.12
 9 Huerfano C… Colo… Retained       2016   6.61                   4.86
10 Huerfano C… Colo… Retained       2012   8.27                   8.1 
# ℹ 814 more rows
# ℹ abbreviated name: ¹​annual_avg_unemployment
…
